1.3306715760817374, 4.138396802968701, 2.687866573281043, 3.0096781651322795, 4.837063653631183, 5.722416914848151, 6.221154820368666, 6.152968721098119, 6.331172631431778, 6.399519662602741, 7.064100156066898, 6.956967721058843
3.2259121996715345, 4.138396802968701, 5.367357567234471, 5.7132597924929005, 6.006569423510284, 5.140281983804061, 5.302886399640581, 6.452232808682922, 6.959216641142348, 7.704151834110842, 7.056224941287297, 6.956967721058845
1.5975851913519117, 1.9176960227158941, 1.941031494490239, 4.376831367613639, 5.080261758364425, 6.326063977222105, 7.055654773995916, 4.316694451201437, 4.872004400856366, 4.863057710603838, 7.056224941287296, 6.956967721058845
1.0034647081641215, 1.2785060386034361, 1.779779947265109, 2.0211273541988595, 3.3656206077940904, 5.156247362046347, 5.098874916472661, 6.95094008635786, 6.467908354106096, 6.484071382995986, 6.3908906115130115, 6.956967721058845
3.2259121996715345, 4.138396802968701, 5.367357567234471, 5.7132597924929005, 6.006569423510284, 5.140281983804061, 5.302886399640581, 6.452232808682922, 6.959216641142348, 7.704151834110842, 7.056224941287297, 6.956967721058845